{
    "host": "localhost",
    "port": "5432",
    "name": "mentoring-workbench",
    "user": "postgres",
    "password": "mwb_postgres",
    "mongodb-host": "localhost",
    "mongodb-port": "27017",
    "mongodb-user": "mongo_admin",
    "mongodb-password": "mwb_mongo"
}
